By Type,Description
Paper Tapes,"You know details make the difference. No matter the job. Whether you require tensile strength, temperature resistance, removability, flexibility or sharp paint lines, Shurtape paper tapes deliver. So you can accomplish work that reflects your demand for unsurpassed performance. "
Masking Tapes,"From temperature and tear resistance to color coding and clean removal, our masking tapes are engineered with the features you demand for the task at-hand. We offer a range of specially formulated tapes for a variety of applications, including labeling, splicing, floor marking, powder-coating and photography."
Masking Tapes - Pro Paint,"When sharp lines and no residue are the priority, trust Shurtape painter's tapes.  With options for a variety of surfaces, and features such as easy unwind and quick stick, these tapes are designed as a tool to make your job easy. "
Flat Paper Tapes,"Offered in a range of colors (including fluorescents), our printable flatback paper tapes deliver the strength and clean removal properties your job demands.  And our flatback packaging tapes, with high tack and adhesion, provide a reliable, secure hold."
Cloth & Duct Tapes,You know all jobs have one thing in common. They must be done right - from automotive and agriculture to HVAC and construction. It's why our complete line of cloth and duct tapes is engineered to exacting specs. Delamination and film variability have been virtually eliminated. So every job you do has your distinctive mark of excellence.
Standard Duct Tapes,"Designed for applications such as bundling, sealing and holding, our standard duct tapes come in a wide variety of color options to make seaming, repairing and color-coding easy.  "
Professional Duct Tapes,"From HVAC installation to abatement jobs, and Stucco applications to sealing bottom board materials, when you need a tough, reliable duct tape, you can count on Shurtape to get the job done. For ultimate durability, choose from our duct tapes made with Polybonded CO-EX Technology(R).  The co-extrusion process melds polyethylene, cloth and adhesive in a single high-temperature step, resulting in a permanent, airtight bond.  This seamless construction creates added strength and will not delaminate."
Colored & Printed Duct Tapes,"We offer an extensive range of standard and fluorescent colored duct tapes as well as camouflage patterns, crafted to be as relentlessly reliable as our silver tapes."
Specialty Duct Tapes,"No matter the job at hand, our speciality duct tapes are crafted to meet your high standards.  From military to nuclear grade, our speciality duct tapes work reliably to hold strong."
Gaffers Tapes,"We offer a complete line of matte-finish tapes for use in the motion picture, audio/visual, television, theatrical, photography and book-binding industries.  With excellent temperature resistance and adhesion, and easy, clean removal these tapes also meet the high standards required in HVAC and industrial applications."
Packaging Tapes,"You know the value of a secure seal. It's why Shurtape packs so much into its packaging tapes. Our HP Series machine-length rolls install easily and work flawlessly to the core. For critical-seal, temperature-variable, high-speed applications, Shurtape keeps your lines at peak production. "
BOPP Packaging Tapes,"You put pride in your box, we put pride on your box.  With a range of adhesive types to match your demanding applications, our BOPP film packaging tapes provide secure seals, carton after carton.  Whether you choose HP Series Hot Melt tapes that have the highest holding power in the industry or AP Series Emulsion Acrylic tapes that perform in extreme temperatures and are UV resistant, you can be confident your cartons will stay secure and its contents protected."
Paper Packaging Tapes,"We reinforce our water-activated paper tapes with fiberglass and PET filaments for excellent tensile strength, and our flatback paper tapes offer strength, high tack and adhesion levels.  No matter which option you choose, you can expect a strong bond on corrugated cartons for a reliable, secure closure."
Strapping Tapes,Our strapping tapes are engineered to keep pallets and bundles in-tact - whether it's a rough ride on a semi or a transcontinental flight.  Our GS Series features a polypropylene backing that prevents splitting or cracking and resists moisture.
Specialty Packaging Tapes,"With 100-percent clarity, our clear-to-the-core tapes have excellent holding power for label protection, overlamination and light carton sealing.  And our BOPP film specialty tapes, which are moisture-proof and resist cracking and discoloration, protect shipping labels and other printed surfaces from weather and handling. We also offer specialty tapes for a range of applications, including bag sealing, mounting, holding and everyday office use.  "
Tape Dispensers and Equipment,"Optimized for high-speed automated case sealing, the ShurSEALTM Solution - combining Shurtape® HP Series tape with a PrimeLocTM tape applicator* - is a box sealing solution engineered for better performance and efficiency - producing a consistent and secure seal, carton after carton.  The PrimeLoc tape applicator provides unique features such as secure, tamper-evident carton seals and double-thick, folded-edge no-knife opening.  Precision-crafted with laser technology, these tape applicators resist corrosion and are easily retrofitted to all leading brands of case sealing equipment.  Visit ShurSEALSecure.com to learn how the ShurSEAL Solution can increase your productivity.  

We also offer a wide range of hand-held and desktop dispensers for packaging, strapping and adhesive transfer applications.  

*Shurtape® is an authorized distributor of PrimeLocTM Packaging, Inc."
Foil Tapes,"You know what it takes to do the job the way it must be done. It's why Shurtape offers an extensive line of foil tapes that form an airtight, permanent and waterproof seal with no leaks. It's also why the line includes UL Listed tapes for HVAC installation. So your work continues to live up to your exacting standards."
Aluminium Foil Tapes,"Designed to form an airtight, moisture-resistant bond on joints and seams, our selection of aluminum foil tapes, including cold-temperature and code-compliant options, provide confidence that the job is done right the first time."
Reinforced Foil Tapes,"Our reinforced foil tapes seal seams in scrim-reinforced pipe and duct insulation and can be used in vast temperature ranges and weather conditions, ensuring a reliable, airtight seal that resists moisture."
Butyl Foil Tapes,"For airtight bonds and moisture-free sealing, ShurMASTIC®  butyl foil tapes make short work of ductwork."
Double-Coated Tapes,"You know the value of versatility. It's reflected in your approach to work and in your tools. And it's why our line of double-coated tapes is comprehensive and various. Whether the job requires mounting, splicing, laminating or joining, Shurtape has the tape. So every detail of your work meets your uncommon standard of quality."
Double-Coated Paper Tapes,"Our double-coated paper tapes are engineered with aggressive adhesive systems to deliver high tack and superior adhesion to both applied surfaces.  These products are purpose-built for applications such as paper splicing, core-starting and applying golf grips."
Double-Coated Film Tapes,"Our double-coated film tapes are ideally suited for mounting, laminating, fastening and splicing of paper, films and various other substrates.  These tapes have high shear strength, superior moisture resistance in high humidity and excellent adhesion to low surface energy substrates such as plastic."
Double-Coated Cloth Tapes,"Our double-coated cloth tapes are engineered with versatile adhesive systems that bond well to smooth or irregular surfaces.  From conference room to convention hall, these tapes maintain their structure to remove cleanly."
Transfer Adhesive Tapes,"Whether you're mounting, holding or splicing, our adhesive transfer tapes work well with a variety of substrates from cardboard to glass.  Easy to use, these tapes bond quickly and eliminate the clean-up associated with liquid adhesives."
PVC Film Tapes,"You know the importance of safety. Whether you’re marking floors, lanes and aisles or identifying safety zones and hazard areas, Shurtape offers a variety of PVC film tapes for color-coding and lane-marking applications. Available in a range of colors and striped options, you’re sure to find a tape that will stand out. So your commitment to safety continues to be relentlessly reliable. "
Specialty Film,"You know some applications demand superior impact resistance and protection capabilities. Especially when you’re fortifying glass and mirrors, where preventing injury from broken or shattered glass is imperative. It’s why Shurtape manufactures its specialty film tapes to provide a reliable bond for uncompromising performance.  So you can count on every strip to deliver maximum protection."
Building and Construction Tapes,"You know you can’t control some things on the jobsite. But you can control the quality and reliability of your work. It’s why we’ve engineered our building and construction tapes to be durable and resilient, to help you leave your mark of excellence. So no matter the circumstances or the task at-hand, you can achieve superior results. "